Assignment 9: Visualization - Revealing a graph
…
Publish the html file to your Githiub Page.

Submission: Submit the link on Github of the assignment to Blackboard.

library(gganimate)

Use the dataset by of covid 19 by WHO at https://covid19.who.int/WHO-COVID-19-global-data.csv. Find the three countries with the most numbers of deaths by Covid-19.

library('tidyverse')
df <- read_csv('https://covid19.who.int/WHO-COVID-19-global-data.csv')
df %>%
  filter(Date_reported=='2020-10-05')%>%
  arrange(-Cumulative_deaths)

## # A tibble: 235 x 8
##    Date_reported Country_code Country WHO_region New_cases Cumulative_cases
##    <date>        <chr>        <chr>   <chr>          <dbl>            <dbl>
##  1 2020-10-05    US           United~ AMRO           49036          7305270
##  2 2020-10-05    BR           Brazil  AMRO           26310          4906833
##  3 2020-10-05    IN           India   SEARO          74442          6623815
##  4 2020-10-05    MX           Mexico  AMRO            4863           757953
##  5 2020-10-05    GB           The Un~ EURO           22961           502982
##  6 2020-10-05    IT           Italy   EURO            2578           325329
##  7 2020-10-05    PE           Peru    AMRO            3421           824985
##  8 2020-10-05    ES           Spain   EURO            6286           817152
##  9 2020-10-05    FR           France  EURO           12545           593248
## 10 2020-10-05    IR           Iran (~ EMRO            3653           471772
## # ... with 225 more rows, and 2 more variables: New_deaths <dbl>,
## #   Cumulative_deaths <dbl>
…
Create the new variable (column) death_per_cases recording the number of deaths per cases (Hint: divide cumulative deaths by cumulative cases). What are the three countries with the highest deaths per cases?

df$death_per_cases <- df$Cumulative_deaths/df$Cumulative_cases
df %>%
  filter(Date_reported=='2020-10-05') %>%
  arrange(-death_per_cases)

## # A tibble: 235 x 9
##    Date_reported Country_code Country WHO_region New_cases Cumulative_cases
##    <date>        <chr>        <chr>   <chr>          <dbl>            <dbl>
##  1 2020-10-05    YE           Yemen   EMRO               0             2045
##  2 2020-10-05    IT           Italy   EURO            2578           325329
##  3 2020-10-05    MX           Mexico  AMRO            4863           757953
##  4 2020-10-05    GB           The Un~ EURO           22961           502982
##  5 2020-10-05    EC           Ecuador AMRO             683           141034
##  6 2020-10-05    MS           Montse~ AMRO               0               13
##  7 2020-10-05    JE           Jersey  EURO               0              421
##  8 2020-10-05    BE           Belgium EURO            1030           135205
##  9 2020-10-05    TD           Chad    AFRO               6             1217
## 10 2020-10-05    IM           Isle o~ EURO               1              342
## # ... with 225 more rows, and 3 more variables: New_deaths <dbl>,
## #   Cumulative_deaths <dbl>, death_per_cases <dbl>
…
